<?xml version="1.0" encoding="iso-8859-1"?>
<!-- Generator: Adobe Illustrator 19.1.0, SVG Export Plug-In . SVG Version: 6.00 Build 0)  -->
<!DOCTYPE svg PUBLIC "-//W3C//DTD SVG 1.1//EN" "http://www.w3.org/Graphics/SVG/1.1/DTD/svg11.dtd">
<svg version="1.1" xmlns="http://www.w3.org/2000/svg" xmlns:xlink="http://www.w3.org/1999/xlink" x="0px" y="0px"
	 viewBox="0 0 544.056 208.216" style="enable-background:new 0 0 544.056 208.216;" xml:space="preserve">
<g id="Layer_1_1_">
	<g>
		<path style="fill:#FFFFFF;" d="M174.863,179.857c-4.855,0-7.895,3.402-7.895,9.392c0,6.08,3.131,9.485,8.213,9.485
			c3.539,0,6.307-1.771,7.759-5.129l2.042,0.863c-1.77,4.175-5.264,6.488-9.937,6.488c-6.489,0-10.618-4.4-10.618-11.661
			c0-7.125,4.22-11.663,10.119-11.663c3.267,0,5.717,1.271,7.759,3.993v-3.449h2.133v7.895h-2.133
			C180.853,181.898,178.402,179.857,174.863,179.857z"/>
		<path style="fill:#FFFFFF;" d="M186.892,198.233h3.403v-17.969h-3.403v-2.087h5.627v5.536c1.951-4.128,4.401-5.943,8.122-5.943
			h0.681v2.541h-0.545c-5.309,0-8.032,3.765-8.032,11.163v6.76h5.128v2.087h-10.981V198.233z"/>
		<path style="fill:#FFFFFF;" d="M213.712,198.643c3.63,0,6.217-1.68,7.67-5.038l2.041,0.863c-1.771,4.175-5.264,6.488-9.937,6.488
			c-6.489,0-10.618-4.4-10.618-11.661c0-7.125,4.22-11.663,10.119-11.663c5.99,0,10.118,4.403,10.118,11.39v0.68h-17.696
			C205.545,195.467,208.54,198.643,213.712,198.643z M220.475,187.615c-0.274-4.81-3.268-7.758-7.488-7.758
			s-7.215,2.948-7.487,7.758H220.475z"/>
		<path style="fill:#FFFFFF;" d="M240.987,197.191c-2.404,2.404-4.763,3.493-7.849,3.493c-4.175,0-7.125-2.858-7.125-7.079
			c0-3.947,3.132-6.851,7.758-6.851c2.224,0,4.63,0.635,7.216,1.906v-2.678c0-4.4-1.678-6.397-5.808-6.397
			c-2.948,0-5.264,1.315-6.625,3.765l-2.132-0.635c1.496-3.267,4.538-5.082,8.757-5.082c6.127,0,8.305,2.632,8.305,8.94v11.661
			h3.493v2.087h-5.99V197.191z M240.987,190.747c-2.678-1.408-4.945-2.134-6.897-2.134c-3.404,0-5.536,1.952-5.536,5.129
			c0,3.039,1.95,4.945,5.036,4.945c2.36,0,4.812-1.18,7.397-3.493V190.747z"/>
		<path style="fill:#FFFFFF;" d="M255.828,198.959c0.635,0,1.408-0.135,2.222-0.407v1.95c-0.952,0.319-1.815,0.454-2.541,0.454
			c-3.765,0-4.626-1.587-4.626-5.489v-15.202h-3.223v-2.087h3.223v-5.264l2.541-1.815v7.079h4.626v2.087h-4.626v15.065
			C253.424,197.87,253.922,198.959,255.828,198.959z"/>
		<path style="fill:#FFFFFF;" d="M259.46,198.233h3.402v-17.969h-3.402v-2.087h5.855v20.056h3.221v2.087h-9.075V198.233z
			 M263.681,168.285c0.908,0,1.678,0.772,1.678,1.68c0,0.952-0.726,1.678-1.678,1.678c-0.954,0-1.634-0.726-1.634-1.678
			C262.048,169.058,262.774,168.285,263.681,168.285z"/>
		<path style="fill:#FFFFFF;" d="M271.216,180.264h-2.723v-2.087h8.394v2.087h-3.041l5.945,16.789l5.717-16.789h-3.402v-2.087h8.438
			v2.087h-2.767l-6.941,20.056h-2.36L271.216,180.264z"/>
		<path style="fill:#FFFFFF;" d="M302.118,198.643c3.63,0,6.218-1.68,7.67-5.038l2.043,0.863c-1.771,4.175-5.264,6.488-9.938,6.488
			c-6.49,0-10.618-4.4-10.618-11.661c0-7.125,4.221-11.663,10.118-11.663c5.99,0,10.12,4.403,10.12,11.39v0.68h-17.697
			C293.95,195.467,296.947,198.643,302.118,198.643z M308.88,187.615c-0.272-4.81-3.267-7.758-7.488-7.758
			c-4.219,0-7.214,2.948-7.486,7.758H308.88z"/>
		<path style="fill:#FFFFFF;" d="M324.994,198.233h3.404v-17.969h-3.404v-2.087h5.852v20.056h3.223v2.087h-9.075V198.233z
			 M329.213,168.285c0.908,0,1.68,0.772,1.68,1.68c0,0.952-0.726,1.678-1.68,1.678c-0.952,0-1.634-0.726-1.634-1.678
			C327.579,169.058,328.305,168.285,329.213,168.285z"/>
		<path style="fill:#FFFFFF;" d="M335.796,198.233h3.311v-17.969h-3.311v-2.132h5.627v3.311c2.948-2.178,5.536-3.311,7.895-3.311
			c4.538,0,5.58,2.541,5.58,7.94v12.161h3.041v2.087h-8.712v-2.087h3.13v-11.933c0-4.175-0.317-6.036-3.356-6.036
			c-2.224,0-4.675,1.18-7.353,3.449v14.52h3.223v2.087h-9.075V198.233z"/>
		<path style="fill:#FFFFFF;" d="M367.244,198.959c0.635,0,1.406-0.135,2.224-0.407v1.95c-0.954,0.319-1.815,0.454-2.541,0.454
			c-3.767,0-4.63-1.587-4.63-5.489v-15.202h-3.221v-2.087h3.221v-5.264l2.541-1.815v7.079h4.63v2.087h-4.63v15.065
			C364.838,197.87,365.339,198.959,367.244,198.959z"/>
		<path style="fill:#FFFFFF;" d="M382.356,198.643c3.63,0,6.218-1.68,7.67-5.038l2.043,0.863c-1.771,4.175-5.264,6.488-9.938,6.488
			c-6.49,0-10.618-4.4-10.618-11.661c0-7.125,4.221-11.663,10.118-11.663c5.99,0,10.12,4.403,10.12,11.39v0.68h-17.697
			C374.188,195.467,377.185,198.643,382.356,198.643z M389.118,187.615c-0.272-4.81-3.267-7.758-7.488-7.758
			c-4.219,0-7.214,2.948-7.486,7.758H389.118z"/>
		<path style="fill:#FFFFFF;" d="M403.098,198.233v2.087h-9.075v-2.087h3.267v-27.316h-3.267v-2.087h5.808v29.404H403.098z"/>
		<path style="fill:#FFFFFF;" d="M414.125,198.233v2.087h-9.075v-2.087h3.267v-27.316h-3.267v-2.087h5.808v29.404H414.125z"/>
		<path style="fill:#FFFFFF;" d="M416.259,198.233h3.402v-17.969h-3.402v-2.087h5.855v20.056h3.221v2.087h-9.075V198.233z
			 M420.48,168.285c0.908,0,1.678,0.772,1.678,1.68c0,0.952-0.726,1.678-1.678,1.678c-0.954,0-1.634-0.726-1.634-1.678
			C418.847,169.058,419.573,168.285,420.48,168.285z"/>
		<path style="fill:#FFFFFF;" d="M437.951,206.175c4.991,0,7.532-2.813,7.532-8.258v-1.452c-2.134,2.676-4.763,3.993-7.76,3.993
			c-5.808,0-9.89-4.312-9.89-11.163c0-6.853,4.037-11.163,9.89-11.163c3.449,0,6.127,1.543,7.986,4.582v-4.582h5.582v2.087h-3.404
			v16.245c0,3.674-0.226,6.397-2.085,8.621c-1.815,2.132-4.403,3.13-7.942,3.13c-2.632,0-5.126-0.68-7.623-2.087l1.045-2.222
			C433.323,205.403,435.545,206.175,437.951,206.175z M445.621,189.34c0-5.808-2.951-9.12-7.623-9.12c-4.675,0-7.67,3.358-7.67,9.12
			c0,5.764,2.995,9.122,7.67,9.122C442.67,198.461,445.621,195.148,445.621,189.34z"/>
		<path style="fill:#FFFFFF;" d="M464.181,198.643c3.63,0,6.218-1.68,7.67-5.038l2.043,0.863c-1.771,4.175-5.264,6.488-9.938,6.488
			c-6.49,0-10.618-4.4-10.618-11.661c0-7.125,4.221-11.663,10.118-11.663c5.99,0,10.12,4.403,10.12,11.39v0.68h-17.697
			C456.013,195.467,459.01,198.643,464.181,198.643z M470.943,187.615c-0.272-4.81-3.267-7.758-7.488-7.758
			c-4.219,0-7.214,2.948-7.486,7.758H470.943z"/>
		<path style="fill:#FFFFFF;" d="M476.029,198.233h3.314v-17.969h-3.314v-2.132h5.627v3.311c2.951-2.178,5.536-3.311,7.895-3.311
			c4.538,0,5.582,2.541,5.582,7.94v12.161h3.039v2.087h-8.712v-2.087h3.132v-11.933c0-4.175-0.319-6.036-3.36-6.036
			c-2.222,0-4.673,1.18-7.349,3.449v14.52h3.221v2.087h-9.075V198.233z"/>
		<path style="fill:#FFFFFF;" d="M510.836,179.857c-4.854,0-7.895,3.402-7.895,9.392c0,6.08,3.13,9.485,8.212,9.485
			c3.541,0,6.308-1.771,7.76-5.129l2.041,0.863c-1.769,4.175-5.264,6.488-9.936,6.488c-6.488,0-10.618-4.4-10.618-11.661
			c0-7.125,4.219-11.663,10.12-11.663c3.267,0,5.715,1.271,7.758,3.993v-3.449h2.132v7.895h-2.132
			C516.826,181.898,514.375,179.857,510.836,179.857z"/>
		<path style="fill:#FFFFFF;" d="M534.343,198.643c3.63,0,6.218-1.68,7.67-5.038l2.043,0.863c-1.771,4.175-5.264,6.488-9.938,6.488
			c-6.49,0-10.618-4.4-10.618-11.661c0-7.125,4.221-11.663,10.118-11.663c5.99,0,10.12,4.403,10.12,11.39v0.68H526.04
			C526.175,195.467,529.172,198.643,534.343,198.643z M541.105,187.615c-0.272-4.81-3.267-7.758-7.488-7.758
			c-4.219,0-7.214,2.948-7.486,7.758H541.105z"/>
	</g>
	<g>
		<g>
			<defs>
				<path id="SVGID_1_" d="M167.053,86.619h10.487v-5.243c5.363,4.648,11.202,6.913,18.234,6.913
					c15.612,0,25.384-9.654,25.384-24.193c0-11.68-5.959-19.307-17.995-23.478l-14.302-5.006
					c-7.27-2.502-10.368-5.721-10.368-11.799c0-6.793,5.006-11.203,12.395-11.203c6.078,0,12.157,3.099,16.924,8.939v6.077h9.772
					V3.91h-9.653v5.482c-4.886-4.53-11.203-6.913-18.115-6.913c-13.229,0-22.882,9.415-22.882,22.406
					c0,10.13,5.721,17.28,16.923,21.094l14.658,4.886c7.032,2.384,10.727,7.27,10.727,13.825c0,7.628-5.482,12.991-13.587,12.991
					c-7.508,0-13.825-4.053-18.115-12.037v-7.39h-10.487V86.619L167.053,86.619z M225.21,86.619h31.821V75.893h-10.25V47.291h35.873
					v28.602h-10.13v10.726h31.819V75.893h-9.772V14.04h9.772V3.91h-31.819v10.13h10.13v23.359h-35.873V14.04h10.25V3.91H225.21
					v10.13h9.774v61.853h-9.774V86.619L225.21,86.619z M345.103,2.48c-23.598,0-41.474,17.4-41.474,42.903
					c0,25.147,17.161,42.905,41.474,42.905c24.312,0,41.353-17.758,41.353-42.905C386.456,20.237,369.652,2.48,345.103,2.48
					L345.103,2.48z M373.704,45.264c0,19.546-12.631,31.94-28.72,31.94c-16.09,0-28.603-12.395-28.603-31.94
					c0-19.425,12.751-31.701,28.603-31.701C361.431,13.563,373.704,26.196,373.704,45.264L373.704,45.264z M431.385,2.48
					c-23.596,0-41.473,17.4-41.473,42.903c0,25.147,17.162,42.905,41.473,42.905c24.313,0,41.354-17.758,41.354-42.905
					C472.739,20.237,455.936,2.48,431.385,2.48L431.385,2.48z M459.987,45.264c0,19.546-12.631,31.94-28.721,31.94
					c-16.089,0-28.604-12.395-28.604-31.94c0-19.425,12.752-31.701,28.604-31.701C447.714,13.563,459.987,26.196,459.987,45.264
					L459.987,45.264z M517.072,14.04h16.448v21.929h9.89V3.91h-64.474v32.058h10.009V14.04h16.329v61.853h-9.892v10.726h31.702
					V75.893h-10.011V14.04L517.072,14.04z"/>
			</defs>
			<use xlink:href="#SVGID_1_"  style="overflow:visible;fill:#FFFFFF;"/>
			<clipPath id="SVGID_2_">
				<use xlink:href="#SVGID_1_"  style="overflow:visible;"/>
			</clipPath>
		</g>
		<g>
			<defs>
				<path id="SVGID_3_" d="M190.944,103.14h10.354v13.806h6.228V96.761h-40.592v20.184h6.302V103.14h10.279v38.941h-6.227v6.753
					h19.958v-6.753h-6.302V103.14L190.944,103.14z M210.377,148.833h20.033v-6.753h-6.453v-18.007h22.584v18.007h-6.377v6.753
					h20.034v-6.753h-6.153V103.14h6.153v-6.378h-20.034v6.378h6.377v14.706h-22.584V103.14h6.453v-6.378h-20.033v6.378h6.152v38.941
					h-6.152V148.833L210.377,148.833z M299.438,142.081h-22.66v-16.882h20.258v-6.228h-20.258V103.14h22.66v9.078h6.303V96.761
					h-42.543v6.378h6.152v38.941h-6.152v6.753h42.543v-16.656h-6.303V142.081L299.438,142.081z M330.811,102.464l18.158,46.369h1.5
					l18.608-45.769v39.016h-6.303v6.753h20.409v-6.753h-6.377V103.14h6.377v-6.378h-17.858l-14.706,36.99l-14.33-36.99h-18.384
					v6.378h6.304v38.941h-6.304v6.753h20.334v-6.753h-7.428V102.464L330.811,102.464z M408.843,95.861
					c-14.856,0-26.111,10.955-26.111,27.011c0,15.832,10.805,27.011,26.111,27.011c15.307,0,26.036-11.179,26.036-27.011
					C434.879,107.041,424.299,95.861,408.843,95.861L408.843,95.861z M426.852,122.797c0,12.305-7.954,20.108-18.083,20.108
					c-10.13,0-18.007-7.803-18.007-20.108c0-12.23,8.027-19.958,18.007-19.958C419.123,102.84,426.852,110.792,426.852,122.797
					L426.852,122.797z M463.165,95.861c-14.856,0-26.111,10.955-26.111,27.011c0,15.832,10.805,27.011,26.111,27.011
					c15.307,0,26.036-11.179,26.036-27.011C489.201,107.041,478.621,95.861,463.165,95.861L463.165,95.861z M481.174,122.797
					c0,12.305-7.954,20.108-18.083,20.108s-18.007-7.803-18.007-20.108c0-12.23,8.027-19.958,18.007-19.958
					C473.445,102.84,481.174,110.792,481.174,122.797L481.174,122.797z M501.655,105.165l25.286,43.668h8.478V103.14h7.503v-6.378
					h-20.558v6.378h6.378v34.215l-23.56-40.593H488.6v6.378h6.377v38.941H488.6v6.753h19.433v-6.753h-6.378V105.165L501.655,105.165
					z"/>
			</defs>
			<use xlink:href="#SVGID_3_"  style="overflow:visible;fill:#FFFFFF;"/>
			<clipPath id="SVGID_4_">
				<use xlink:href="#SVGID_3_"  style="overflow:visible;"/>
			</clipPath>
		</g>
	</g>
	<g>
		<path style="fill:#FFFFFF;" d="M75.985,102.658c14.73,0,26.673-11.943,26.673-26.673c0-14.731-11.943-26.666-26.673-26.666
			c-14.731,0-26.674,11.935-26.674,26.666C49.311,90.715,61.254,102.658,75.985,102.658"/>
		<path style="fill:#231F20;" d="M75.985,86.444c5.779,0,10.459-4.68,10.459-10.459c0-5.772-4.68-10.459-10.459-10.459
			c-5.779,0-10.459,4.688-10.459,10.459C65.526,81.764,70.206,86.444,75.985,86.444"/>
		<path style="fill:#E90E8B;" d="M75.985,0C34.023,0,0,34.023,0,75.985c0,41.969,34.023,75.985,75.985,75.985
			c41.961,0,75.985-34.016,75.985-75.985C151.97,34.023,117.946,0,75.985,0z M75.985,135.347c-24.045,0-44.753-14.3-54.083-34.857
			c-3.391-7.471-5.279-15.768-5.279-24.505c0-32.783,26.579-59.354,59.362-59.354c23.726,0,44.203,13.918,53.705,34.036
			c3.627,7.678,5.657,16.261,5.657,25.318C135.347,108.767,108.767,135.347,75.985,135.347z"/>
		<path style="fill:#FCEE21;" d="M129.69,50.667c-9.503-20.118-29.979-34.036-53.705-34.036c-32.783,0-59.362,26.572-59.362,59.354
			c0,8.737,1.888,17.034,5.279,24.505c9.331,20.557,30.038,34.857,54.083,34.857c32.782,0,59.362-26.58,59.362-59.362
			C135.347,66.929,133.317,58.345,129.69,50.667z M75.985,119.132c-15.096,0-28.379-7.75-36.089-19.488
			c-4.462-6.793-7.058-14.923-7.058-23.659c0-23.823,19.316-43.14,43.147-43.14c15.161,0,28.493,7.819,36.19,19.641
			c4.4,6.762,6.958,14.831,6.958,23.499C119.132,99.816,99.816,119.132,75.985,119.132z"/>
		<path style="fill:#29ABE2;" d="M112.175,52.486c-7.696-11.822-21.029-19.641-36.19-19.641c-23.831,0-43.147,19.316-43.147,43.14
			c0,8.736,2.597,16.866,7.058,23.659c7.71,11.738,20.994,19.488,36.089,19.488c23.831,0,43.147-19.316,43.147-43.147
			C119.132,67.317,116.575,59.248,112.175,52.486z M75.985,102.658c-8.003,0-15.182-3.525-20.071-9.107
			c-4.11-4.692-6.603-10.839-6.603-17.566c0-14.731,11.943-26.666,26.674-26.666c8.273,0,15.665,3.764,20.558,9.673
			c3.82,4.614,6.116,10.535,6.116,16.993C102.658,90.715,90.715,102.658,75.985,102.658z"/>
		<path style="fill:#231F20;" d="M69.079,83.841c-2.179-1.916-3.553-4.724-3.553-7.856c0-5.772,4.68-10.459,10.459-10.459
			c2.956,0,5.624,1.227,7.526,3.198c-2.544,2.353-5.084,4.992-7.605,7.953C73.648,79.329,71.366,81.709,69.079,83.841"/>
		<linearGradient id="SVGID_5_" gradientUnits="userSpaceOnUse" x1="111.7349" y1="136.5959" x2="40.0902" y2="12.5037">
			<stop  offset="0.6333" style="stop-color:#FFFFFF;stop-opacity:0"/>
			<stop  offset="0.6662" style="stop-color:#FFFFFF;stop-opacity:0.0896"/>
			<stop  offset="1" style="stop-color:#FFFFFF"/>
		</linearGradient>
		<circle style="opacity:0.39;fill:url(#SVGID_5_);" cx="75.913" cy="74.55" r="71.633"/>
		<linearGradient id="SVGID_6_" gradientUnits="userSpaceOnUse" x1="104.0747" y1="125.1302" x2="47.7503" y2="27.5735">
			<stop  offset="0.6333" style="stop-color:#FFFFFF;stop-opacity:0"/>
			<stop  offset="0.6662" style="stop-color:#FFFFFF;stop-opacity:0.0896"/>
			<stop  offset="1" style="stop-color:#FFFFFF"/>
		</linearGradient>
		<circle style="opacity:0.39;fill:url(#SVGID_6_);" cx="75.913" cy="76.352" r="56.315"/>
		<linearGradient id="SVGID_7_" gradientUnits="userSpaceOnUse" x1="96.4146" y1="112.7636" x2="55.4104" y2="41.7422">
			<stop  offset="0.6333" style="stop-color:#FFFFFF;stop-opacity:0"/>
			<stop  offset="0.6662" style="stop-color:#FFFFFF;stop-opacity:0.0896"/>
			<stop  offset="1" style="stop-color:#FFFFFF"/>
		</linearGradient>
		<circle style="opacity:0.39;fill:url(#SVGID_7_);" cx="75.913" cy="77.253" r="40.997"/>
		<linearGradient id="SVGID_8_" gradientUnits="userSpaceOnUse" x1="82.2208" y1="86.9483" x2="70.5053" y2="66.6565">
			<stop  offset="0.6333" style="stop-color:#FFFFFF;stop-opacity:0"/>
			<stop  offset="0.6662" style="stop-color:#FFFFFF;stop-opacity:0.0896"/>
			<stop  offset="1" style="stop-color:#FFFFFF"/>
		</linearGradient>
		<circle style="opacity:0.39;fill:url(#SVGID_8_);" cx="76.363" cy="76.802" r="11.714"/>
	</g>
</g>
<g id="Layer_1">
</g>
</svg>
