<?xml version="1.0" standalone="no"?>
<!DOCTYPE svg PUBLIC "-//W3C//DTD SVG 1.1//EN" "http://www.w3.org/Graphics/SVG/1.1/DTD/svg11.dtd" >
<svg xmlns="http://www.w3.org/2000/svg">
<metadata>Generated by IcoMoon</metadata>
<defs>
<font id="stm-icon" horiz-adv-x="1024">
<font-face units-per-em="1024" ascent="960" descent="-64" />
<missing-glyph horiz-adv-x="1024" />
<glyph unicode="&#x20;" horiz-adv-x="512" d="" />
<glyph unicode="&#xe900;" glyph-name="chevron-down" d="M917.333 768l128-132.267-512-507.733-512 507.733 128 132.267 384-384 384 384z" />
<glyph unicode="&#xe901;" glyph-name="menu" d="M1024 704h-1024v170.667h1024v-170.667zM1024 533.333h-1024v-170.667h1024v170.667zM1024 192h-1024v-170.667h1024v170.667z" />
<glyph unicode="&#xe902;" glyph-name="close" d="M1022.037 62.72l-391.851 388.053 387.925 391.424-120.832 119.765-387.84-391.637-391.509 387.755-119.893-119.893 391.936-388.48-388.053-391.851 119.893-119.893 388.779 392.192 391.68-388.267z" />
</font></defs></svg>