{
    "name": "Prototype Project",
    "title": "STM Website",
    "description": "Boilerplate project setup",
    "clientImage": "_stm/index-image.jpg",
    "clientLogo": "_stm/stm-logo.svg",
    "stmLogo": "_stm/stm-logo.svg",
    "styles": "_styles",
    "scripts": "_scripts",
    "mainCss": "styles.css",
    "images": "images",
    "copyrightYear": "2018"
}